
{
  "header": {
    "reportVersion": 1,
    "event": "Allocation failed - JavaScript heap out of memory",
    "trigger": "FatalError",
    "filename": "report.20191213.134145.12886.0.001.json",
    "dumpEventTime": "2019-12-13T13:41:45Z",
    "dumpEventTimeStamp": "1576255305392",
    "processId": 12886,
    "cwd": "/home/marcelo/Documentos/projetos/projeto-tesis-front",
    "commandLine": [
      "/usr/bin/node",
      "/home/marcelo/Documentos/projetos/projeto-tesis-front/node_modules/react-app-rewired/scripts/start.js"
    ],
    "nodejsVersion": "v13.3.0",
    "glibcVersionRuntime": "2.27",
    "glibcVersionCompiler": "2.17",
    "wordSize": 64,
    "arch": "x64",
    "platform": "linux",
    "componentVersions": {
      "node": "13.3.0",
      "v8": "7.9.317.25-node.23",
      "uv": "1.33.1",
      "zlib": "1.2.11",
      "brotli": "1.0.7",
      "ares": "1.15.0",
      "modules": "79",
      "nghttp2": "1.40.0",
      "napi": "5",
      "llhttp": "2.0.1",
      "openssl": "1.1.1d",
      "cldr": "35.1",
      "icu": "64.2",
      "tz": "2019c",
      "unicode": "12.1"
    },
    "release": {
      "name": "node",
      "headersUrl": "https://nodejs.org/download/release/v13.3.0/node-v13.3.0-headers.tar.gz",
      "sourceUrl": "https://nodejs.org/download/release/v13.3.0/node-v13.3.0.tar.gz"
    },
    "osName": "Linux",
    "osRelease": "5.0.0-37-generic",
    "osVersion": "#40~18.04.1-Ubuntu SMP Thu Nov 14 12:06:39 UTC 2019",
    "osMachine": "x86_64",
    "cpus": [
      {
        "model": "Intel(R) Core(TM) i7-8650U CPU @ 1.90GHz",
        "speed": 2265,
        "user": 18456100,
        "nice": 30800,
        "sys": 4771600,
        "idle": 252502200,
        "irq": 0
      },
      {
        "model": "Intel(R) Core(TM) i7-8650U CPU @ 1.90GHz",
        "speed": 2257,
        "user": 19017700,
        "nice": 40300,
        "sys": 4538700,
        "idle": 113505500,
        "irq": 0
      },
      {
        "model": "Intel(R) Core(TM) i7-8650U CPU @ 1.90GHz",
        "speed": 2272,
        "user": 19695300,
        "nice": 35700,
        "sys": 4096500,
        "idle": 113653100,
        "irq": 0
      },
      {
        "model": "Intel(R) Core(TM) i7-8650U CPU @ 1.90GHz",
        "speed": 2276,
        "user": 19588800,
        "nice": 39600,
        "sys": 4236900,
        "idle": 113767900,
        "irq": 0
      },
      {
        "model": "Intel(R) Core(TM) i7-8650U CPU @ 1.90GHz",
        "speed": 2276,
        "user": 19780700,
        "nice": 38200,
        "sys": 4067100,
        "idle": 113565600,
        "irq": 0
      },
      {
        "model": "Intel(R) Core(TM) i7-8650U CPU @ 1.90GHz",
        "speed": 2277,
        "user": 19103600,
        "nice": 33700,
        "sys": 4148300,
        "idle": 114169100,
        "irq": 0
      },
      {
        "model": "Intel(R) Core(TM) i7-8650U CPU @ 1.90GHz",
        "speed": 2277,
        "user": 18725200,
        "nice": 23600,
        "sys": 4209200,
        "idle": 113428500,
        "irq": 0
      },
      {
        "model": "Intel(R) Core(TM) i7-8650U CPU @ 1.90GHz",
        "speed": 2246,
        "user": 18885700,
        "nice": 30900,
        "sys": 4179700,
        "idle": 114256300,
        "irq": 0
      }
    ],
    "networkInterfaces": [
      {
        "name": "lo",
        "internal": true,
        "mac": "00:00:00:00:00:00",
        "address": "127.0.0.1",
        "netmask": "255.0.0.0",
        "family": "IPv4"
      },
      {
        "name": "wlp2s0",
        "internal": false,
        "mac": "64:32:a8:a4:cd:1f",
        "address": "192.168.100.19",
        "netmask": "255.255.255.0",
        "family": "IPv4"
      },
      {
        "name": "br-a9ff3d07c9b0",
        "internal": false,
        "mac": "02:42:e6:bb:14:09",
        "address": "192.168.144.1",
        "netmask": "255.255.240.0",
        "family": "IPv4"
      },
      {
        "name": "br-dc6504191101",
        "internal": false,
        "mac": "02:42:35:bf:f2:d5",
        "address": "192.168.160.1",
        "netmask": "255.255.240.0",
        "family": "IPv4"
      },
      {
        "name": "lo",
        "internal": true,
        "mac": "00:00:00:00:00:00",
        "address": "::1",
        "netmask": "ffff:ffff:ffff:ffff:ffff:ffff:ffff:ffff",
        "family": "IPv6",
        "scopeid": 0
      },
      {
        "name": "wlp2s0",
        "internal": false,
        "mac": "64:32:a8:a4:cd:1f",
        "address": "2001:1284:f019:edf2:4c6b:6664:78ca:a756",
        "netmask": "ffff:ffff:ffff:ffff::",
        "family": "IPv6",
        "scopeid": 0
      },
      {
        "name": "wlp2s0",
        "internal": false,
        "mac": "64:32:a8:a4:cd:1f",
        "address": "2001:1284:f019:edf2:21b3:9c7f:5f1:1dbc",
        "netmask": "ffff:ffff:ffff:ffff::",
        "family": "IPv6",
        "scopeid": 0
      },
      {
        "name": "wlp2s0",
        "internal": false,
        "mac": "64:32:a8:a4:cd:1f",
        "address": "fe80::23cc:4b87:6ef8:10b1",
        "netmask": "ffff:ffff:ffff:ffff::",
        "family": "IPv6",
        "scopeid": 3
      },
      {
        "name": "br-a9ff3d07c9b0",
        "internal": false,
        "mac": "02:42:e6:bb:14:09",
        "address": "fe80::42:e6ff:febb:1409",
        "netmask": "ffff:ffff:ffff:ffff::",
        "family": "IPv6",
        "scopeid": 6
      },
      {
        "name": "br-dc6504191101",
        "internal": false,
        "mac": "02:42:35:bf:f2:d5",
        "address": "fe80::42:35ff:febf:f2d5",
        "netmask": "ffff:ffff:ffff:ffff::",
        "family": "IPv6",
        "scopeid": 7
      },
      {
        "name": "veth09c3324",
        "internal": false,
        "mac": "12:4b:79:0d:e4:ab",
        "address": "fe80::104b:79ff:fe0d:e4ab",
        "netmask": "ffff:ffff:ffff:ffff::",
        "family": "IPv6",
        "scopeid": 9
      },
      {
        "name": "vethea139e4",
        "internal": false,
        "mac": "2a:80:91:0a:de:d2",
        "address": "fe80::2880:91ff:fe0a:ded2",
        "netmask": "ffff:ffff:ffff:ffff::",
        "family": "IPv6",
        "scopeid": 11
      },
      {
        "name": "veth820cd00",
        "internal": false,
        "mac": "f2:ff:cf:72:ab:b6",
        "address": "fe80::f0ff:cfff:fe72:abb6",
        "netmask": "ffff:ffff:ffff:ffff::",
        "family": "IPv6",
        "scopeid": 13
      },
      {
        "name": "vethb19ac8e",
        "internal": false,
        "mac": "fa:90:0a:35:39:2b",
        "address": "fe80::f890:aff:fe35:392b",
        "netmask": "ffff:ffff:ffff:ffff::",
        "family": "IPv6",
        "scopeid": 15
      },
      {
        "name": "veth82a44b9",
        "internal": false,
        "mac": "ae:32:7b:ec:0c:b8",
        "address": "fe80::ac32:7bff:feec:cb8",
        "netmask": "ffff:ffff:ffff:ffff::",
        "family": "IPv6",
        "scopeid": 17
      },
      {
        "name": "veth19dd791",
        "internal": false,
        "mac": "f6:09:3a:bd:f7:b5",
        "address": "fe80::f409:3aff:febd:f7b5",
        "netmask": "ffff:ffff:ffff:ffff::",
        "family": "IPv6",
        "scopeid": 19
      },
      {
        "name": "vethc9c4366",
        "internal": false,
        "mac": "3e:49:20:ff:68:d5",
        "address": "fe80::3c49:20ff:feff:68d5",
        "netmask": "ffff:ffff:ffff:ffff::",
        "family": "IPv6",
        "scopeid": 21
      }
    ],
    "host": "marcelo-Latitude-7490"
  },
  "javascriptStack": {
    "message": "No stack.",
    "stack": [
      "Unavailable."
    ]
  },
  "nativeStack": [
    {
      "pc": "0x0000000000b22b05",
      "symbol": "report::TriggerNodeReport(v8::Isolate*, node::Environment*, char const*, char const*, std::string const&, v8::Local<v8::String>) [/usr/bin/node]"
    },
    {
      "pc": "0x00000000009f371c",
      "symbol": "node::OnFatalError(char const*, char const*) [/usr/bin/node]"
    },
    {
      "pc": "0x0000000000b5865e",
      "symbol": "v8::Utils::ReportOOMFailure(v8::internal::Isolate*, char const*, bool) [/usr/bin/node]"
    },
    {
      "pc": "0x0000000000b589d9",
      "symbol": "v8::internal::V8::FatalProcessOutOfMemory(v8::internal::Isolate*, char const*, bool) [/usr/bin/node]"
    },
    {
      "pc": "0x0000000000d064e5",
      "symbol": " [/usr/bin/node]"
    },
    {
      "pc": "0x0000000000d06b76",
      "symbol": "v8::internal::Heap::RecomputeLimits(v8::internal::GarbageCollector) [/usr/bin/node]"
    },
    {
      "pc": "0x0000000000d15d8f",
      "symbol": "v8::internal::Heap::PerformGarbageCollection(v8::internal::GarbageCollector, v8::GCCallbackFlags) [/usr/bin/node]"
    },
    {
      "pc": "0x0000000000d16c15",
      "symbol": "v8::internal::Heap::CollectGarbage(v8::internal::AllocationSpace, v8::internal::GarbageCollectionReason, v8::GCCallbackFlags) [/usr/bin/node]"
    },
    {
      "pc": "0x0000000000d196ac",
      "symbol": "v8::internal::Heap::AllocateRawWithRetryOrFailSlowPath(int, v8::internal::AllocationType, v8::internal::AllocationOrigin, v8::internal::AllocationAlignment) [/usr/bin/node]"
    },
    {
      "pc": "0x0000000000ce01a4",
      "symbol": "v8::internal::Factory::NewFillerObject(int, bool, v8::internal::AllocationType, v8::internal::AllocationOrigin) [/usr/bin/node]"
    },
    {
      "pc": "0x000000000102d4ee",
      "symbol": "v8::internal::Runtime_AllocateInYoungGeneration(int, unsigned long*, v8::internal::Isolate*) [/usr/bin/node]"
    },
    {
      "pc": "0x00000000013ad8f9",
      "symbol": " [/usr/bin/node]"
    }
  ],
  "javascriptHeap": {
    "totalMemory": 2151428096,
    "totalCommittedMemory": 2149870760,
    "usedMemory": 2143711360,
    "availableMemory": 48404320,
    "memoryLimit": 2197815296,
    "heapSpaces": {
      "read_only_space": {
        "memorySize": 262144,
        "committedMemory": 33328,
        "capacity": 33040,
        "used": 33040,
        "available": 0
      },
      "new_space": {
        "memorySize": 2097152,
        "committedMemory": 1127264,
        "capacity": 1047424,
        "used": 77728,
        "available": 969696
      },
      "old_space": {
        "memorySize": 1969098752,
        "committedMemory": 1968836904,
        "capacity": 1965092648,
        "used": 1965092648,
        "available": 0
      },
      "code_space": {
        "memorySize": 2002944,
        "committedMemory": 1906496,
        "capacity": 1805888,
        "used": 1805888,
        "available": 0
      },
      "map_space": {
        "memorySize": 4722688,
        "committedMemory": 4722352,
        "capacity": 3806480,
        "used": 3806480,
        "available": 0
      },
      "large_object_space": {
        "memorySize": 172621824,
        "committedMemory": 172621824,
        "capacity": 172351032,
        "used": 172351032,
        "available": 0
      },
      "code_large_object_space": {
        "memorySize": 622592,
        "committedMemory": 622592,
        "capacity": 544544,
        "used": 544544,
        "available": 0
      },
      "new_large_object_space": {
        "memorySize": 0,
        "committedMemory": 0,
        "capacity": 1047424,
        "used": 0,
        "available": 1047424
      }
    }
  },
  "resourceUsage": {
    "userCpuSeconds": 230.096,
    "kernelCpuSeconds": 6.97175,
    "cpuConsumptionPercent": 3.07122,
    "maxRss": 2345078784,
    "pageFaults": {
      "IORequired": 18,
      "IONotRequired": 1642000
    },
    "fsActivity": {
      "reads": 5160,
      "writes": 1208
    }
  },
  "uvthreadResourceUsage": {
    "userCpuSeconds": 95.5069,
    "kernelCpuSeconds": 3.6849,
    "cpuConsumptionPercent": 1.28503,
    "fsActivity": {
      "reads": 4904,
      "writes": 24
    }
  },
  "libuv": [
  ],
  "environmentVariables": {
    "GJS_DEBUG_TOPICS": "JS ERROR;JS LOG",
    "npm_package_dependencies_redux_persist": "^6.0.0",
    "SPACESHIP_ROOT": "/home/marcelo/.oh-my-zsh/custom/themes/spaceship-prompt",
    "npm_package_dependencies_react_countdown_now": "^2.1.1",
    "npm_package_dependencies__material_ui_icons": "^4.4.1",
    "USER": "marcelo",
    "LANGUAGE": "pt_BR:pt:en",
    "npm_package_dependencies_react_toastify": "^5.3.2",
    "npm_config_version_commit_hooks": "true",
    "npm_config_user_agent": "yarn/1.19.2 npm/? node/v13.3.0 linux x64",
    "TEXTDOMAIN": "im-config",
    "XDG_SEAT": "seat0",
    "npm_package_dependencies_formik": "^1.5.8",
    "npm_package_dependencies__material_ui_core": "^4.4.1",
    "npm_config_bin_links": "true",
    "XDG_SESSION_TYPE": "x11",
    "SSH_AGENT_PID": "2526",
    "npm_node_execpath": "/usr/bin/node",
    "npm_package_dependencies_react_slick": "^0.24.0",
    "npm_config_init_version": "1.0.0",
    "SHLVL": "1",
    "QT4_IM_MODULE": "xim",
    "HOME": "/home/marcelo",
    "CHROME_DESKTOP": "code-url-handler.desktop",
    "LESS": "-R",
    "OLDPWD": "/home/marcelo/Documentos/projetos/projeto-tesis-front",
    "npm_package_browserslist_production_0": ">0.2%",
    "npm_package_dependencies_react_player": "^1.12.0",
    "DESKTOP_SESSION": "ubuntu",
    "TERM_PROGRAM_VERSION": "1.40.2",
    "npm_package_browserslist_production_1": "not dead",
    "npm_package_devDependencies_eslint_config_prettier": "^6.2.0",
    "npm_package_dependencies_react_multi_carousel": "^2.2.5",
    "npm_package_dependencies_react_input_mask": "^2.0.4",
    "GIO_LAUNCHED_DESKTOP_FILE": "/usr/share/applications/code.desktop",
    "LSCOLORS": "Gxfxcxdxbxegedabagacad",
    "ZSH": "/home/marcelo/.oh-my-zsh",
    "npm_package_browserslist_production_2": "not op_mini all",
    "npm_package_dependencies_react_app_rewire_aliases": "^0.2.0",
    "npm_config_init_license": "MIT",
    "GTK_MODULES": "gail:atk-bridge",
    "GNOME_SHELL_SESSION_MODE": "ubuntu",
    "PAGER": "less",
    "YARN_WRAP_OUTPUT": "false",
    "npm_package_dependencies_react_moment": "^0.9.6",
    "npm_config_version_tag_prefix": "v",
    "npm_package_dependencies_immer": "^3.2.0",
    "npm_package_dependencies__react_pdf_renderer": "^1.6.7",
    "DBUS_SESSION_BUS_ADDRESS": "unix:path=/run/user/1000/bus",
    "npm_package_devDependencies_eslint_plugin_react_hooks": "^2.0.1",
    "npm_package_dependencies_moment": "^2.24.0",
    "GIO_LAUNCHED_DESKTOP_FILE_PID": "8983",
    "COLORTERM": "truecolor",
    "npm_package_description": "In the project directory, you can run:",
    "npm_package_dependencies_react_router_dom": "^4.3.1",
    "npm_package_dependencies_react_scripts": "3.3.0",
    "ZPFX": "/home/marcelo/.zplugin/polaris",
    "npm_package_readmeFilename": "README.md",
    "npm_package_dependencies_react_color": "^2.17.3",
    "npm_package_dependencies__testing_library_react": "^9.3.2",
    "MANDATORY_PATH": "/usr/share/gconf/ubuntu.mandatory.path",
    "IM_CONFIG_PHASE": "2",
    "npm_package_scripts_dev": "react-app-rewired start",
    "npm_package_devDependencies_prettier": "^1.18.2",
    "LOGNAME": "marcelo",
    "GTK_IM_MODULE": "ibus",
    "npm_package_devDependencies_eslint_plugin_import": "^2.18.2",
    "_": "/usr/bin/yarn",
    "npm_package_dependencies_sass_loader": "^7.3.1",
    "npm_package_dependencies_react_app_rewired": "^2.1.3",
    "npm_package_dependencies_polished": "^3.4.1",
    "npm_package_private": "true",
    "npm_config_prefix": "/home/marcelo/.npm-global",
    "DEFAULTS_PATH": "/usr/share/gconf/ubuntu.default.path",
    "npm_package_dependencies_yup": "^0.27.0",
    "npm_package_dependencies_reactotron_react_js": "^3.3.2",
    "npm_config_registry": "https://registry.yarnpkg.com",
    "USERNAME": "marcelo",
    "XDG_SESSION_ID": "2",
    "TERM": "xterm-256color",
    "npm_package_dependencies_react_load_script": "^0.0.6",
    "GNOME_DESKTOP_SESSION_ID": "this-is-deprecated",
    "npm_package_scripts_start": "react-app-rewired start",
    "npm_config_ignore_scripts": "",
    "WINDOWPATH": "2",
    "ZSH_CACHE_DIR": "/home/marcelo/.cache/zplugin",
    "npm_package_browserslist_development_0": "last 1 chrome version",
    "npm_package_dependencies_axios": "^0.19.0",
    "npm_package_dependencies__material_ui_styles": "^4.4.3",
    "PATH": "/tmp/yarn--1576247586377-0.3570699432601532:/home/marcelo/Documentos/projetos/projeto-tesis-front/node_modules/.bin:/home/marcelo/.config/yarn/link/node_modules/.bin:/usr/libexec/lib/node_modules/npm/bin/node-gyp-bin:/usr/lib/node_modules/npm/bin/node-gyp-bin:/usr/bin/node_modules/npm/bin/node-gyp-bin:/home/marcelo/.zplugin/polaris/bin:/home/marcelo/.zplugin/polaris/bin:/home/marcelo/.npm-global/bin:/usr/local/sbin:/usr/local/bin:/usr/sbin:/usr/bin:/sbin:/bin:/usr/games:/usr/local/games:/snap/bin",
    "NODE": "/usr/bin/node",
    "SESSION_MANAGER": "local/marcelo-Latitude-7490:@/tmp/.ICE-unix/2430,unix/marcelo-Latitude-7490:/tmp/.ICE-unix/2430",
    "npm_package_browserslist_development_1": "last 1 firefox version",
    "npm_package_dependencies_react_quill": "^1.3.3",
    "npm_package_name": "front-tesis",
    "XDG_RUNTIME_DIR": "/run/user/1000",
    "XDG_MENU_PREFIX": "gnome-",
    "npm_package_browserslist_development_2": "last 1 safari version",
    "npm_package_devDependencies_eslint_plugin_jsx_a11y": "^6.2.3",
    "npm_package_dependencies_react_redux": "^7.1.0",
    "DISPLAY": ":0",
    "npm_package_scripts_eject": "react-scripts eject",
    "npm_package_devDependencies_eslint_config_airbnb": "^18.0.1",
    "XDG_CURRENT_DESKTOP": "Unity",
    "LANG": "pt_BR.UTF-8",
    "npm_package_devDependencies_eslint": "^6.3.0",
    "npm_package_dependencies_redux_saga": "^1.0.5",
    "npm_package_dependencies_redux": "^4.0.1",
    "npm_package_dependencies_react_coverflow": "^0.2.20",
    "npm_package_dependencies_history": "^4.7.2",
    "npm_package_dependencies_react_dom": "^16.12.0",
    "XDG_SESSION_DESKTOP": "ubuntu",
    "XMODIFIERS": "@im=ibus",
    "XAUTHORITY": "/run/user/1000/gdm/Xauthority",
    "TERM_PROGRAM": "vscode",
    "LS_COLORS": "rs=0:di=01;34:ln=01;36:mh=00:pi=40;33:so=01;35:do=01;35:bd=40;33;01:cd=40;33;01:or=40;31;01:mi=00:su=37;41:sg=30;43:ca=30;41:tw=30;42:ow=34;42:st=37;44:ex=01;32:*.tar=01;31:*.tgz=01;31:*.arc=01;31:*.arj=01;31:*.taz=01;31:*.lha=01;31:*.lz4=01;31:*.lzh=01;31:*.lzma=01;31:*.tlz=01;31:*.txz=01;31:*.tzo=01;31:*.t7z=01;31:*.zip=01;31:*.z=01;31:*.Z=01;31:*.dz=01;31:*.gz=01;31:*.lrz=01;31:*.lz=01;31:*.lzo=01;31:*.xz=01;31:*.zst=01;31:*.tzst=01;31:*.bz2=01;31:*.bz=01;31:*.tbz=01;31:*.tbz2=01;31:*.tz=01;31:*.deb=01;31:*.rpm=01;31:*.jar=01;31:*.war=01;31:*.ear=01;31:*.sar=01;31:*.rar=01;31:*.alz=01;31:*.ace=01;31:*.zoo=01;31:*.cpio=01;31:*.7z=01;31:*.rz=01;31:*.cab=01;31:*.wim=01;31:*.swm=01;31:*.dwm=01;31:*.esd=01;31:*.jpg=01;35:*.jpeg=01;35:*.mjpg=01;35:*.mjpeg=01;35:*.gif=01;35:*.bmp=01;35:*.pbm=01;35:*.pgm=01;35:*.ppm=01;35:*.tga=01;35:*.xbm=01;35:*.xpm=01;35:*.tif=01;35:*.tiff=01;35:*.png=01;35:*.svg=01;35:*.svgz=01;35:*.mng=01;35:*.pcx=01;35:*.mov=01;35:*.mpg=01;35:*.mpeg=01;35:*.m2v=01;35:*.mkv=01;35:*.webm=01;35:*.ogm=01;35:*.mp4=01;35:*.m4v=01;35:*.mp4v=01;35:*.vob=01;35:*.qt=01;35:*.nuv=01;35:*.wmv=01;35:*.asf=01;35:*.rm=01;35:*.rmvb=01;35:*.flc=01;35:*.avi=01;35:*.fli=01;35:*.flv=01;35:*.gl=01;35:*.dl=01;35:*.xcf=01;35:*.xwd=01;35:*.yuv=01;35:*.cgm=01;35:*.emf=01;35:*.ogv=01;35:*.ogx=01;35:*.aac=00;36:*.au=00;36:*.flac=00;36:*.m4a=00;36:*.mid=00;36:*.midi=00;36:*.mka=00;36:*.mp3=00;36:*.mpc=00;36:*.ogg=00;36:*.ra=00;36:*.wav=00;36:*.oga=00;36:*.opus=00;36:*.spx=00;36:*.xspf=00;36:",
    "npm_lifecycle_script": "react-app-rewired start",
    "npm_package_dependencies_react_awesome_slider": "^1.0.1",
    "SSH_AUTH_SOCK": "/run/user/1000/keyring/ssh",
    "npm_package_scripts_test": "react-app-rewired test --env=jsdom",
    "npm_package_dependencies_react_input_range": "^1.3.0",
    "npm_config_version_git_message": "v%s",
    "SHELL": "/usr/bin/zsh",
    "npm_lifecycle_event": "start",
    "npm_package_dependencies_slick_carousel": "^1.8.1",
    "npm_package_dependencies__testing_library_jest_dom": "^4.2.4",
    "npm_package_version": "0.1.0",
    "QT_ACCESSIBILITY": "1",
    "GDMSESSION": "ubuntu",
    "NO_AT_BRIDGE": "1",
    "npm_config_argv": "{\"remain\":[],\"cooked\":[\"run\",\"start\"],\"original\":[\"start\"]}",
    "npm_package_scripts_build": "react-app-rewired build",
    "npm_package_dependencies__testing_library_user_event": "^7.1.2",
    "npm_package_dependencies__react_pdf_styled_components": "^1.4.0",
    "npm_config_version_git_tag": "true",
    "npm_config_version_git_sign": "",
    "TEXTDOMAINDIR": "/usr/share/locale/",
    "GPG_AGENT_INFO": "/run/user/1000/gnupg/S.gpg-agent:0:1",
    "GJS_DEBUG_OUTPUT": "stderr",
    "npm_package_devDependencies_eslint_plugin_react": "^7.14.3",
    "npm_package_dependencies_react_html_parser": "^2.0.2",
    "npm_package_dependencies_react_bootstrap": "^1.0.0-beta.12",
    "npm_package_dependencies_classnames": "^2.2.6",
    "npm_config_strict_ssl": "true",
    "XDG_VTNR": "2",
    "QT_IM_MODULE": "xim",
    "SPACESHIP_VERSION": "3.11.2",
    "npm_package_devDependencies_eslint_plugin_prettier": "^3.1.0",
    "PWD": "/home/marcelo/Documentos/projetos/projeto-tesis-front",
    "npm_execpath": "/usr/share/yarn/bin/yarn.js",
    "npm_package_dependencies_react_js_pagination": "^3.0.2",
    "npm_package_dependencies_bootstrap": "^4.3.1",
    "CLUTTER_IM_MODULE": "xim",
    "XDG_DATA_DIRS": "/usr/share/ubuntu:/usr/local/share/:/usr/share/:/var/lib/snapd/desktop",
    "XDG_CONFIG_DIRS": "/etc/xdg/xdg-ubuntu:/etc/xdg",
    "npm_package_dependencies_styled_components": "^4.4.0",
    "npm_package_dependencies_prop_types": "^15.7.2",
    "npm_config_save_prefix": "^",
    "npm_config_ignore_optional": "",
    "npm_package_dependencies_pdfkit": "^0.10.0",
    "INIT_CWD": "/home/marcelo/Documentos/projetos/projeto-tesis-front",
    "npm_package_eslintConfig_extends": "react-app",
    "npm_package_dependencies_reactotron_redux_saga": "^4.2.2",
    "npm_package_dependencies_reactotron_redux": "^3.1.1",
    "npm_package_dependencies_react": "^16.12.0",
    "NODE_ENV": "development",
    "NODE_PATH": "",
    "BABEL_ENV": "development",
    "WEBPACK_DEV_SERVER": "true"
  },
  "userLimits": {
    "core_file_size_blocks": {
      "soft": 0,
      "hard": "unlimited"
    },
    "data_seg_size_kbytes": {
      "soft": "unlimited",
      "hard": "unlimited"
    },
    "file_size_blocks": {
      "soft": "unlimited",
      "hard": "unlimited"
    },
    "max_locked_memory_bytes": {
      "soft": 16777216,
      "hard": 16777216
    },
    "max_memory_size_kbytes": {
      "soft": "unlimited",
      "hard": "unlimited"
    },
    "open_files": {
      "soft": 1048576,
      "hard": 1048576
    },
    "stack_size_bytes": {
      "soft": 8388608,
      "hard": "unlimited"
    },
    "cpu_time_seconds": {
      "soft": "unlimited",
      "hard": "unlimited"
    },
    "max_user_processes": {
      "soft": 63477,
      "hard": 63477
    },
    "virtual_memory_kbytes": {
      "soft": "unlimited",
      "hard": "unlimited"
    }
  },
  "sharedObjects": [
    "linux-vdso.so.1",
    "/lib/x86_64-linux-gnu/libdl.so.2",
    "/usr/lib/x86_64-linux-gnu/libstdc++.so.6",
    "/lib/x86_64-linux-gnu/libm.so.6",
    "/lib/x86_64-linux-gnu/libgcc_s.so.1",
    "/lib/x86_64-linux-gnu/libpthread.so.0",
    "/lib/x86_64-linux-gnu/libc.so.6",
    "/lib64/ld-linux-x86-64.so.2",
    "/lib/x86_64-linux-gnu/libnss_files.so.2"
  ]
}