<?xml version="1.0" encoding="UTF-8"?>
<svg width="441px" height="283px" viewBox="0 0 441 283" version="1.1" xmlns="http://www.w3.org/2000/svg" xmlns:xlink="http://www.w3.org/1999/xlink">
    <!-- Generator: Sketch 52.1 (67048) - http://www.bohemiancoding.com/sketch -->
    <title>Oval 4</title>
    <desc>Created with Sketch.</desc>
    <g id="Checkout" stroke="none" stroke-width="1" fill="none" fill-rule="evenodd" opacity="0.04">
        <g transform="translate(-906.000000, -698.000000)" fill="#FFFFFF" id="Group">
            <g transform="translate(132.000000, 479.000000)">
                <g id="Creditcard" transform="translate(774.000000, 219.000000)">
                    <g id="Card">
                        <ellipse id="Oval-4" cx="-44.9668305" cy="-73.7318008" rx="497.885749" ry="388.176245"></ellipse>
                    </g>
                </g>
            </g>
        </g>
    </g>
</svg>