<?xml version="1.0" encoding="UTF-8"?>
<svg width="140px" height="181px" viewBox="0 0 140 181" version="1.1" xmlns="http://www.w3.org/2000/svg" xmlns:xlink="http://www.w3.org/1999/xlink">
    <!-- Generator: Sketch 52.1 (67048) - http://www.bohemiancoding.com/sketch -->
    <title>Combined Shape</title>
    <desc>Created with Sketch.</desc>
    <g id="Symbols" stroke="none" stroke-width="1" fill="none" fill-rule="evenodd">
        <g id="icon/file-download" fill="#5433F1">
            <path d="M66.1201019,121.38863 L42.6066948,97.8318106 C40.4644351,95.6854652 40.4644351,92.2032026 42.6066948,90.0568575 C44.7503835,87.90908 48.2245885,87.90908 50.3682772,90.0568575 L64.5123355,104.227891 L64.5123355,64.4983095 C64.5123355,61.4613527 66.9690028,59 70.0001786,59 C73.0299254,59 75.4880218,61.4613527 75.4880218,64.4983095 L75.4880218,104.227891 L89.63208,90.0568575 C91.7757688,87.90908 95.2499737,87.90908 97.3922334,90.0568575 C99.5359222,92.2032026 99.5359222,95.6854652 97.3922334,97.8318106 L73.8802553,121.38863 C71.7379956,123.536407 68.2637907,123.537839 66.1201019,121.38863 Z M93.5122582,134 C96.543378,134 99,136.685938 99,140 C99,143.3125 96.541949,146 93.5122582,146 L46.4877418,146 C43.458051,146 41,143.3125 41,140 C41,136.685938 43.458051,134 46.4877418,134 L93.5122582,134 Z M122.792181,0 C132.351605,0 140,7.50115967 140,16.6621855 L140,164.337815 C140,173.592743 132.253201,181 122.792181,181 L17.2078191,181 C7.71970204,181 0,173.525078 0,164.337815 L0,39.3810884 C0,37.9753113 0.577587081,36.6261521 1.60440872,35.6318894 L36.7987206,1.55353537 C37.8255423,0.559272678 39.2188821,0 40.670694,0 L122.792181,0 Z M41.0600304,12.4241408 L12.830992,39.7580796 L34.8049751,39.7580796 C38.2548107,39.7580796 41.0600304,37.0418091 41.0600304,33.7013625 L41.0600304,12.4241408 Z M129.047236,164.337815 L129.047236,16.6621855 C129.047236,13.273407 126.200658,10.6054688 122.792181,10.6054688 L52.0127946,10.6054688 L52.0127946,33.7027437 C52.0127946,42.8900071 44.2930922,50.3649292 34.8049751,50.3649292 L10.9527642,50.3649292 L10.9527642,164.337815 C10.9527642,167.67688 13.75941,170.394531 17.2078191,170.394531 L122.792181,170.394531 C126.293357,170.394531 129.047236,167.636833 129.047236,164.337815 Z" id="Combined-Shape"></path>
        </g>
    </g>
</svg>