<?xml version="1.0" encoding="UTF-8"?>
<svg width="117px" height="117px" viewBox="0 0 117 117" version="1.1" xmlns="http://www.w3.org/2000/svg" xmlns:xlink="http://www.w3.org/1999/xlink">
    <!-- Generator: Sketch 52.1 (67048) - http://www.bohemiancoding.com/sketch -->
    <title>Shape</title>
    <desc>Created with Sketch.</desc>
    <g id="Symbols" stroke="none" stroke-width="1" fill="none" fill-rule="evenodd">
        <g id="Produto-Hover/lista-de-espera-check" transform="translate(-207.000000, -123.000000)" fill="#34B16F" fill-rule="nonzero">
            <path d="M265.5,123 C233.192867,123 207,149.191771 207,181.5 C207,213.808229 233.192867,240 265.5,240 C297.810697,240 324,213.808229 324,181.5 C324,149.191771 297.8096,123 265.5,123 Z M254.765787,209 L229,184.07678 L237.587864,175.769394 L254.765787,192.385228 L293.412136,155 L302,163.307386 L254.765787,209 Z" id="Shape"></path>
        </g>
    </g>
</svg>